<svg width="100" height="100" xmlns="http://www.w3.org/2000/svg">

 <g>
  <title>background</title>
  <rect fill="none" id="canvas_background" height="102" width="102" y="-1" x="-1"/>
 </g>
 <g>
  <title>Layer 1</title>
  <path stroke="null" id="svg_1" d="m98.884574,78.573448l-0.485356,-1.462405c-1.149528,-3.416705 -4.917529,-6.980141 -8.378785,-7.918974l-12.810958,-3.499676c-3.47413,-0.945168 -8.429875,0.325751 -10.971713,2.867384l-4.636329,4.636534c-16.850146,-4.553359 -30.063286,-17.766703 -34.610309,-34.613579l4.636534,-4.636534c2.541837,-2.541837 3.812552,-7.491043 2.867384,-10.965173l-3.49334,-12.817293c-0.945168,-3.467795 -4.515143,-7.235592 -7.925309,-8.37245l-1.462405,-0.491692c-3.416705,-1.136858 -8.28948,0.012875 -10.831113,2.554508l-6.935591,6.941926c-1.239038,1.232499 -2.030936,4.757719 -2.030936,4.770594c-0.242576,22.019856 8.39166,43.23494 23.967617,58.811102c15.537742,15.537742 36.673125,24.159307 58.629221,23.974157c0.115055,0 3.742456,-0.779227 4.98129,-2.011726l6.935591,-6.935591c2.541633,-2.541633 3.691161,-7.414407 2.554508,-10.831113z" fill="#004fb6"/>
 </g>
</svg>